<?xml version='1.0' encoding='utf-8'?>
<svg xmlns="http://www.w3.org/2000/svg" xmlns:xlink="http://www.w3.org/1999/xlink" id="chart-0cb85960-093f-43e8-8255-20481f66bb6a" class="pygal-chart" viewBox="0 0 800 600"><!--Generated with pygal 2.4.0 (lxml) ©Kozea 2012-2016 on 2019-09-05--><!--http://pygal.org--><!--http://github.com/Kozea/pygal--><defs><style type="text/css">#chart-0cb85960-093f-43e8-8255-20481f66bb6a{-webkit-user-select:none;-webkit-font-smoothing:antialiased;font-family:Consolas,"Liberation Mono",Menlo,Courier,monospace}#chart-0cb85960-093f-43e8-8255-20481f66bb6a .title{font-family:Consolas,"Liberation Mono",Menlo,Courier,monospace;font-size:16px}#chart-0cb85960-093f-43e8-8255-20481f66bb6a .legends .legend text{font-family:Consolas,"Liberation Mono",Menlo,Courier,monospace;font-size:14px}#chart-0cb85960-093f-43e8-8255-20481f66bb6a .axis text{font-family:Consolas,"Liberation Mono",Menlo,Courier,monospace;font-size:10px}#chart-0cb85960-093f-43e8-8255-20481f66bb6a .axis text.major{font-family:Consolas,"Liberation Mono",Menlo,Courier,monospace;font-size:10px}#chart-0cb85960-093f-43e8-8255-20481f66bb6a .text-overlay text.value{font-family:Consolas,"Liberation Mono",Menlo,Courier,monospace;font-size:16px}#chart-0cb85960-093f-43e8-8255-20481f66bb6a .text-overlay text.label{font-family:Consolas,"Liberation Mono",Menlo,Courier,monospace;font-size:10px}#chart-0cb85960-093f-43e8-8255-20481f66bb6a .tooltip{font-family:Consolas,"Liberation Mono",Menlo,Courier,monospace;font-size:14px}#chart-0cb85960-093f-43e8-8255-20481f66bb6a text.no_data{font-family:Consolas,"Liberation Mono",Menlo,Courier,monospace;font-size:64px}
#chart-0cb85960-093f-43e8-8255-20481f66bb6a{background-color:rgba(249,249,249,1)}#chart-0cb85960-093f-43e8-8255-20481f66bb6a path,#chart-0cb85960-093f-43e8-8255-20481f66bb6a line,#chart-0cb85960-093f-43e8-8255-20481f66bb6a rect,#chart-0cb85960-093f-43e8-8255-20481f66bb6a circle{-webkit-transition:150ms;-moz-transition:150ms;transition:150ms}#chart-0cb85960-093f-43e8-8255-20481f66bb6a .graph &gt; .background{fill:rgba(249,249,249,1)}#chart-0cb85960-093f-43e8-8255-20481f66bb6a .plot &gt; .background{fill:rgba(255,255,255,1)}#chart-0cb85960-093f-43e8-8255-20481f66bb6a .graph{fill:rgba(0,0,0,.87)}#chart-0cb85960-093f-43e8-8255-20481f66bb6a text.no_data{fill:rgba(0,0,0,1)}#chart-0cb85960-093f-43e8-8255-20481f66bb6a .title{fill:rgba(0,0,0,1)}#chart-0cb85960-093f-43e8-8255-20481f66bb6a .legends .legend text{fill:rgba(0,0,0,.87)}#chart-0cb85960-093f-43e8-8255-20481f66bb6a .legends .legend:hover text{fill:rgba(0,0,0,1)}#chart-0cb85960-093f-43e8-8255-20481f66bb6a .axis .line{stroke:rgba(0,0,0,1)}#chart-0cb85960-093f-43e8-8255-20481f66bb6a .axis .guide.line{stroke:rgba(0,0,0,.54)}#chart-0cb85960-093f-43e8-8255-20481f66bb6a .axis .major.line{stroke:rgba(0,0,0,.87)}#chart-0cb85960-093f-43e8-8255-20481f66bb6a .axis text.major{fill:rgba(0,0,0,1)}#chart-0cb85960-093f-43e8-8255-20481f66bb6a .axis.y .guides:hover .guide.line,#chart-0cb85960-093f-43e8-8255-20481f66bb6a .line-graph .axis.x .guides:hover .guide.line,#chart-0cb85960-093f-43e8-8255-20481f66bb6a .stackedline-graph .axis.x .guides:hover .guide.line,#chart-0cb85960-093f-43e8-8255-20481f66bb6a .xy-graph .axis.x .guides:hover .guide.line{stroke:rgba(0,0,0,1)}#chart-0cb85960-093f-43e8-8255-20481f66bb6a .axis .guides:hover text{fill:rgba(0,0,0,1)}#chart-0cb85960-093f-43e8-8255-20481f66bb6a .reactive{fill-opacity:.7;stroke-opacity:.8}#chart-0cb85960-093f-43e8-8255-20481f66bb6a .ci{stroke:rgba(0,0,0,.87)}#chart-0cb85960-093f-43e8-8255-20481f66bb6a .reactive.active,#chart-0cb85960-093f-43e8-8255-20481f66bb6a .active .reactive{fill-opacity:.8;stroke-opacity:.9;stroke-width:4}#chart-0cb85960-093f-43e8-8255-20481f66bb6a .ci .reactive.active{stroke-width:1.5}#chart-0cb85960-093f-43e8-8255-20481f66bb6a .series text{fill:rgba(0,0,0,1)}#chart-0cb85960-093f-43e8-8255-20481f66bb6a .tooltip rect{fill:rgba(255,255,255,1);stroke:rgba(0,0,0,1);-webkit-transition:opacity 150ms;-moz-transition:opacity 150ms;transition:opacity 150ms}#chart-0cb85960-093f-43e8-8255-20481f66bb6a .tooltip .label{fill:rgba(0,0,0,.87)}#chart-0cb85960-093f-43e8-8255-20481f66bb6a .tooltip .label{fill:rgba(0,0,0,.87)}#chart-0cb85960-093f-43e8-8255-20481f66bb6a .tooltip .legend{font-size:.8em;fill:rgba(0,0,0,.54)}#chart-0cb85960-093f-43e8-8255-20481f66bb6a .tooltip .x_label{font-size:.6em;fill:rgba(0,0,0,1)}#chart-0cb85960-093f-43e8-8255-20481f66bb6a .tooltip .xlink{font-size:.5em;text-decoration:underline}#chart-0cb85960-093f-43e8-8255-20481f66bb6a .tooltip .value{font-size:1.5em}#chart-0cb85960-093f-43e8-8255-20481f66bb6a .bound{font-size:.5em}#chart-0cb85960-093f-43e8-8255-20481f66bb6a .max-value{font-size:.75em;fill:rgba(0,0,0,.54)}#chart-0cb85960-093f-43e8-8255-20481f66bb6a .map-element{fill:rgba(255,255,255,1);stroke:rgba(0,0,0,.54) !important}#chart-0cb85960-093f-43e8-8255-20481f66bb6a .map-element .reactive{fill-opacity:inherit;stroke-opacity:inherit}#chart-0cb85960-093f-43e8-8255-20481f66bb6a .color-0,#chart-0cb85960-093f-43e8-8255-20481f66bb6a .color-0 a:visited{stroke:#F44336;fill:#F44336}#chart-0cb85960-093f-43e8-8255-20481f66bb6a .text-overlay .color-0 text{fill:black}
#chart-0cb85960-093f-43e8-8255-20481f66bb6a text.no_data{text-anchor:middle}#chart-0cb85960-093f-43e8-8255-20481f66bb6a .guide.line{fill:none}#chart-0cb85960-093f-43e8-8255-20481f66bb6a .centered{text-anchor:middle}#chart-0cb85960-093f-43e8-8255-20481f66bb6a .title{text-anchor:middle}#chart-0cb85960-093f-43e8-8255-20481f66bb6a .legends .legend text{fill-opacity:1}#chart-0cb85960-093f-43e8-8255-20481f66bb6a .axis.x text{text-anchor:middle}#chart-0cb85960-093f-43e8-8255-20481f66bb6a .axis.x:not(.web) text[transform]{text-anchor:start}#chart-0cb85960-093f-43e8-8255-20481f66bb6a .axis.x:not(.web) text[transform].backwards{text-anchor:end}#chart-0cb85960-093f-43e8-8255-20481f66bb6a .axis.y text{text-anchor:end}#chart-0cb85960-093f-43e8-8255-20481f66bb6a .axis.y text[transform].backwards{text-anchor:start}#chart-0cb85960-093f-43e8-8255-20481f66bb6a .axis.y2 text{text-anchor:start}#chart-0cb85960-093f-43e8-8255-20481f66bb6a .axis.y2 text[transform].backwards{text-anchor:end}#chart-0cb85960-093f-43e8-8255-20481f66bb6a .axis .guide.line{stroke-dasharray:4,4}#chart-0cb85960-093f-43e8-8255-20481f66bb6a .axis .major.guide.line{stroke-dasharray:6,6}#chart-0cb85960-093f-43e8-8255-20481f66bb6a .horizontal .axis.y .guide.line,#chart-0cb85960-093f-43e8-8255-20481f66bb6a .horizontal .axis.y2 .guide.line,#chart-0cb85960-093f-43e8-8255-20481f66bb6a .vertical .axis.x .guide.line{opacity:0}#chart-0cb85960-093f-43e8-8255-20481f66bb6a .horizontal .axis.always_show .guide.line,#chart-0cb85960-093f-43e8-8255-20481f66bb6a .vertical .axis.always_show .guide.line{opacity:1 !important}#chart-0cb85960-093f-43e8-8255-20481f66bb6a .axis.y .guides:hover .guide.line,#chart-0cb85960-093f-43e8-8255-20481f66bb6a .axis.y2 .guides:hover .guide.line,#chart-0cb85960-093f-43e8-8255-20481f66bb6a .axis.x .guides:hover .guide.line{opacity:1}#chart-0cb85960-093f-43e8-8255-20481f66bb6a .axis .guides:hover text{opacity:1}#chart-0cb85960-093f-43e8-8255-20481f66bb6a .nofill{fill:none}#chart-0cb85960-093f-43e8-8255-20481f66bb6a .subtle-fill{fill-opacity:.2}#chart-0cb85960-093f-43e8-8255-20481f66bb6a .dot{stroke-width:1px;fill-opacity:1}#chart-0cb85960-093f-43e8-8255-20481f66bb6a .dot.active{stroke-width:5px}#chart-0cb85960-093f-43e8-8255-20481f66bb6a .dot.negative{fill:transparent}#chart-0cb85960-093f-43e8-8255-20481f66bb6a text,#chart-0cb85960-093f-43e8-8255-20481f66bb6a tspan{stroke:none !important}#chart-0cb85960-093f-43e8-8255-20481f66bb6a .series text.active{opacity:1}#chart-0cb85960-093f-43e8-8255-20481f66bb6a .tooltip rect{fill-opacity:.95;stroke-width:.5}#chart-0cb85960-093f-43e8-8255-20481f66bb6a .tooltip text{fill-opacity:1}#chart-0cb85960-093f-43e8-8255-20481f66bb6a .showable{visibility:hidden}#chart-0cb85960-093f-43e8-8255-20481f66bb6a .showable.shown{visibility:visible}#chart-0cb85960-093f-43e8-8255-20481f66bb6a .gauge-background{fill:rgba(229,229,229,1);stroke:none}#chart-0cb85960-093f-43e8-8255-20481f66bb6a .bg-lines{stroke:rgba(249,249,249,1);stroke-width:2px}</style><script type="text/javascript">window.pygal = window.pygal || {};window.pygal.config = window.pygal.config || {};window.pygal.config['0cb85960-093f-43e8-8255-20481f66bb6a'] = {"allow_interruptions": false, "box_mode": "extremes", "classes": ["pygal-chart"], "css": ["file://style.css", "file://graph.css"], "defs": [], "disable_xml_declaration": false, "dots_size": 2.5, "dynamic_print_values": false, "explicit_size": false, "fill": false, "force_uri_protocol": "https", "formatter": null, "half_pie": false, "height": 600, "include_x_axis": false, "inner_radius": 0, "interpolate": null, "interpolation_parameters": {}, "interpolation_precision": 250, "inverse_y_axis": false, "js": ["//kozea.github.io/pygal.js/2.0.x/pygal-tooltips.min.js"], "legend_at_bottom": false, "legend_at_bottom_columns": null, "legend_box_size": 12, "logarithmic": false, "margin": 20, "margin_bottom": null, "margin_left": null, "margin_right": null, "margin_top": null, "max_scale": 16, "min_scale": 4, "missing_value_fill_truncation": "x", "no_data_text": "No data", "no_prefix": false, "order_min": null, "pretty_print": false, "print_labels": false, "print_values": false, "print_values_position": "center", "print_zeroes": true, "range": null, "rounded_bars": null, "secondary_range": null, "show_dots": true, "show_legend": true, "show_minor_x_labels": true, "show_minor_y_labels": true, "show_only_major_dots": false, "show_x_guides": false, "show_x_labels": true, "show_y_guides": true, "show_y_labels": true, "spacing": 10, "stack_from_top": false, "strict": false, "stroke": true, "stroke_style": null, "style": {"background": "rgba(249, 249, 249, 1)", "ci_colors": [], "colors": ["#F44336", "#3F51B5", "#009688", "#FFC107", "#FF5722", "#9C27B0", "#03A9F4", "#8BC34A", "#FF9800", "#E91E63", "#2196F3", "#4CAF50", "#FFEB3B", "#673AB7", "#00BCD4", "#CDDC39", "#9E9E9E", "#607D8B"], "font_family": "Consolas, \"Liberation Mono\", Menlo, Courier, monospace", "foreground": "rgba(0, 0, 0, .87)", "foreground_strong": "rgba(0, 0, 0, 1)", "foreground_subtle": "rgba(0, 0, 0, .54)", "guide_stroke_dasharray": "4,4", "label_font_family": "Consolas, \"Liberation Mono\", Menlo, Courier, monospace", "label_font_size": 10, "legend_font_family": "Consolas, \"Liberation Mono\", Menlo, Courier, monospace", "legend_font_size": 14, "major_guide_stroke_dasharray": "6,6", "major_label_font_family": "Consolas, \"Liberation Mono\", Menlo, Courier, monospace", "major_label_font_size": 10, "no_data_font_family": "Consolas, \"Liberation Mono\", Menlo, Courier, monospace", "no_data_font_size": 64, "opacity": ".7", "opacity_hover": ".8", "plot_background": "rgba(255, 255, 255, 1)", "stroke_opacity": ".8", "stroke_opacity_hover": ".9", "title_font_family": "Consolas, \"Liberation Mono\", Menlo, Courier, monospace", "title_font_size": 16, "tooltip_font_family": "Consolas, \"Liberation Mono\", Menlo, Courier, monospace", "tooltip_font_size": 14, "transition": "150ms", "value_background": "rgba(229, 229, 229, 1)", "value_colors": [], "value_font_family": "Consolas, \"Liberation Mono\", Menlo, Courier, monospace", "value_font_size": 16, "value_label_font_family": "Consolas, \"Liberation Mono\", Menlo, Courier, monospace", "value_label_font_size": 10}, "title": "#Total de viajes (millones)", "tooltip_border_radius": 0, "tooltip_fancy_mode": true, "truncate_label": null, "truncate_legend": null, "width": 800, "x_label_rotation": 0, "x_labels": ["Cash", "Credit Card", "Dispute", "No Charge", "Pcard", "Prcard", "Unknown", "Way2ride"], "x_labels_major": null, "x_labels_major_count": null, "x_labels_major_every": null, "x_title": null, "xrange": null, "y_label_rotation": 0, "y_labels": null, "y_labels_major": null, "y_labels_major_count": null, "y_labels_major_every": null, "y_title": null, "zero": 0, "legends": ["$"]}</script><script type="text/javascript" xlink:href="https://kozea.github.io/pygal.js/2.0.x/pygal-tooltips.min.js"/></defs><title>#Total de viajes (millones)</title><g class="graph bar-graph vertical"><rect x="0" y="0" width="800" height="600" class="background"/><g transform="translate(72, 46)" class="plot"><rect x="0" y="0" width="707.6" height="514" class="background"/><g class="axis y always_show"><g class="guides"><path d="M0.000000 504.115385 h707.600000" class="axis major line"/><text x="-5" y="507.61538461538464" class="major">0</text><title>0</title></g><g class="guides"><path d="M0.000000 456.816478 h707.600000" class="guide line"/><text x="-5" y="460.31647794157516" class="">1</text><title>1</title></g><g class="guides"><path d="M0.000000 409.517571 h707.600000" class="guide line"/><text x="-5" y="413.0175712677657" class="">2</text><title>2</title></g><g class="guides"><path d="M0.000000 362.218665 h707.600000" class="guide line"/><text x="-5" y="365.7186645939562" class="">3</text><title>3</title></g><g class="guides"><path d="M0.000000 314.919758 h707.600000" class="guide line"/><text x="-5" y="318.41975792014665" class="">4</text><title>4</title></g><g class="guides"><path d="M0.000000 267.620851 h707.600000" class="major guide line"/><text x="-5" y="271.1208512463372" class="major">5</text><title>5</title></g><g class="guides"><path d="M0.000000 220.321945 h707.600000" class="guide line"/><text x="-5" y="223.82194457252768" class="">6</text><title>6</title></g><g class="guides"><path d="M0.000000 173.023038 h707.600000" class="guide line"/><text x="-5" y="176.5230378987182" class="">7</text><title>7</title></g><g class="guides"><path d="M0.000000 125.724131 h707.600000" class="guide line"/><text x="-5" y="129.22413122490883" class="">8</text><title>8</title></g><g class="guides"><path d="M0.000000 78.425225 h707.600000" class="guide line"/><text x="-5" y="81.92522455109935" class="">9</text><title>9</title></g><g class="guides"><path d="M0.000000 31.126318 h707.600000" class="major guide line"/><text x="-5" y="34.626317877289864" class="major">10</text><title>10</title></g></g><g class="axis x"><path d="M0.000000 0.000000 v514.000000" class="line"/><g class="guides"><path d="M56.131731 0.000000 v514.000000" class="guide line"/><text x="56.13173076923077" y="529.0" class="">Cash</text></g><g class="guides"><path d="M141.179808 0.000000 v514.000000" class="guide line"/><text x="141.1798076923077" y="529.0" class="">Credit Card</text></g><g class="guides"><path d="M226.227885 0.000000 v514.000000" class="guide line"/><text x="226.22788461538462" y="529.0" class="">Dispute</text></g><g class="guides"><path d="M311.275962 0.000000 v514.000000" class="guide line"/><text x="311.27596153846156" y="529.0" class="">No Charge</text></g><g class="guides"><path d="M396.324038 0.000000 v514.000000" class="guide line"/><text x="396.32403846153846" y="529.0" class="">Pcard</text></g><g class="guides"><path d="M481.372115 0.000000 v514.000000" class="guide line"/><text x="481.37211538461537" y="529.0" class="">Prcard</text></g><g class="guides"><path d="M566.420192 0.000000 v514.000000" class="guide line"/><text x="566.4201923076923" y="529.0" class="">Unknown</text></g><g class="guides"><path d="M651.468269 0.000000 v514.000000" class="guide line"/><text x="651.4682692307692" y="529.0" class="">Way2ride</text></g></g><g class="series serie-0 color-0"><g class="bars"><g class="bar"><rect x="23.201115384615385" y="9.884615384615302" rx="0" ry="0" width="65.86123076923076" height="494.23076923076934" class="rect reactive tooltip-trigger"/><desc class="value">10.449095</desc><desc class="x centered">56.131730769230764</desc><desc class="y centered">257.0</desc><desc class="x_label">Cash</desc></g><g class="bar"><rect x="108.2491923076923" y="66.20309246877355" rx="0" ry="0" width="65.86123076923076" height="437.9122921466111" class="rect reactive tooltip-trigger"/><desc class="value">9.258402</desc><desc class="x centered">141.1798076923077</desc><desc class="y centered">285.1592385420791</desc><desc class="x_label">Credit Card</desc></g><g class="bar"><rect x="193.29726923076925" y="503.55025727844594" rx="0" ry="0" width="65.86123076923076" height="0.5651273369387013" class="rect reactive tooltip-trigger"/><desc class="value">0.011948</desc><desc class="x centered">226.22788461538462</desc><desc class="y centered">503.83282094691526</desc><desc class="x_label">Dispute</desc></g><g class="bar"><rect x="278.3453461538461" y="499.39414964792496" rx="0" ry="0" width="65.86123076923076" height="4.721234967459679" class="rect reactive tooltip-trigger"/><desc class="value">0.099817</desc><desc class="x centered">311.2759615384615</desc><desc class="y centered">501.75476713165483</desc><desc class="x_label">No Charge</desc></g><g class="bar"><rect x="363.39342307692306" y="503.8670653553471" rx="0" ry="0" width="65.86123076923076" height="0.24831926003753324" class="rect reactive tooltip-trigger"/><desc class="value">0.00525</desc><desc class="x centered">396.3240384615384</desc><desc class="y centered">503.9912249853659</desc><desc class="x_label">Pcard</desc></g><g class="bar"><rect x="448.4415" y="503.92893232527643" rx="0" ry="0" width="65.86123076923076" height="0.18645229010820685" class="rect reactive tooltip-trigger"/><desc class="value">0.003942</desc><desc class="x centered">481.3721153846154</desc><desc class="y centered">504.0221584703305</desc><desc class="x_label">Prcard</desc></g><g class="bar"><rect x="533.4895769230768" y="502.3325942250354" rx="0" ry="0" width="65.86123076923076" height="1.7827903903492484" class="rect reactive tooltip-trigger"/><desc class="value">0.037692</desc><desc class="x centered">566.4201923076922</desc><desc class="y centered">503.22398942021005</desc><desc class="x_label">Unknown</desc></g><g class="bar"><rect x="618.5376538461538" y="504.1148643274112" rx="0" ry="0" width="65.86123076923076" height="0.000520287973415634" class="rect reactive tooltip-trigger"/><desc class="value">1.1e-05</desc><desc class="x centered">651.4682692307692</desc><desc class="y centered">504.11512447139796</desc><desc class="x_label">Way2ride</desc></g></g></g></g><g class="titles"><text x="400.0" y="26" class="title plot_title">#Total de viajes (millones)</text></g><g transform="translate(72, 46)" class="plot overlay"><g class="series serie-0 color-0"/></g><g transform="translate(72, 46)" class="plot text-overlay"><g class="series serie-0 color-0"/></g><g transform="translate(72, 46)" class="plot tooltip-overlay"><g transform="translate(0 0)" style="opacity: 0" class="tooltip"><rect rx="0" ry="0" width="0" height="0" class="tooltip-box"/><g class="text"/></g></g><g transform="translate(10, 56)" class="legends"><g id="activate-serie-0" class="legend reactive activate-serie"><rect x="0.0" y="1.0" width="12" height="12" class="color-0 reactive"/><text x="17.0" y="11.2">$</text></g></g><g transform="translate(790, 56)" class="legends"/></g></svg>